{
	"create_route_map":	false,
	"create_new_project":	false,
	"created_menu":	false,
	"created_views":	true,
	"theme":	"material",
	"output_folder":	"D:\\XPA\\XPA49\\Projects\\HelloWorld\\output",
	"backup_current":	false,
	"source_images_folder":	"D:\\XPA\\XPA49\\Projects\\HelloWorld\\images",
	"copy_images":	false,
	"exposed_functionality":	true,
	"allow_testing":	false,
	"project_name":	"HelloWorld",
	"web_modules":	[
		{
			"module_name":	"",
			"load_on_demand":	false,
			"form_files":	[
				"HelloWorld/HelloWorld"
			]
		}
	],
	"controls_accessor_only":	false
}